{
  "version": 1,
  "projects": [
    {
      "name": "abc",
      "code": "abc",
      "basic": {
        "user": "hoge",
        "pass": "fuga"
      }
    },
    {
      "name": "def",
      "code": "def",
      "basic": {
        "user": "foo",
        "pass": "bar"
      }
    }
  ]
}
